…
### Creating a summary table of the yearly sightings listed in descending order

```r
ufo2 %>% 
  group_by(year) %>% 
  summarise(sightings = n()) %>% 
  arrange(desc(sightings))
```

```
## # A tibble: 84 × 2
##    year  sightings
##    <fct>     <int>
##  1 2012       6750
##  2 2013       6463
##  3 2011       4666
##  4 2008       4309
##  5 2009       3937
##  6 2010       3825
##  7 2007       3732
##  8 2004       3514
##  9 2005       3458
## 10 2003       3218
## # ℹ 74 more rows
```
…
## Plotting the total number of sightings in each state
### Creating a summary table of the total recorded sightings in each state

```r
ufo2 %>% 
  group_by(state) %>% 
  summarise(sightings = n()) %>%
  arrange(desc(sightings))
```

```
## # A tibble: 52 × 2
##    state sightings
##    <fct>     <int>
##  1 ca         9575
##  2 wa         4292
##  3 fl         4155
##  4 tx         3742
##  5 ny         3234
##  6 il         2698
##  7 az         2617
##  8 pa         2520
##  9 oh         2464
## 10 mi         1980
## # ℹ 42 more rows
```
…
## Plotting the frequency of sightings organized by shape
### Creating a summary table of the total recorded sightings in each state

```r
ufo2 %>% 
  filter(!is.na(shape), shape != 'unknown') %>% #added this to remove the 'unknowns' in this column that evaded being assigned NA
  group_by(shape) %>% 
  summarise(sightings = n()) %>%
  arrange(desc(sightings))
```

```
## # A tibble: 27 × 2
##    shape     sightings
##    <fct>         <int>
##  1 light         14268
##  2 triangle       6952
##  3 circle         6650
##  4 fireball       5364
##  5 other          4836
##  6 disk           4555
##  7 sphere         4529
##  8 oval           3260
##  9 formation      2112
## 10 cigar          1750
## # ℹ 17 more rows
```
…
